<svg xmlns="http://www.w3.org/2000/svg" width="28.431" height="6.822" viewBox="0 0 28.431 6.822">
  <g id="Group_1433" data-name="Group 1433" transform="translate(-255.601 -2145.63)">
    <g id="Group_38" data-name="Group 38" transform="translate(-729.899 1690.5)">
      <line id="Line_2" data-name="Line 2" x2="28.399" transform="translate(985.5 458.541)" fill="none" stroke="#000" stroke-width="1"/>
      <line id="Line_3" data-name="Line 3" x2="3.345" y2="3.041" transform="translate(1010.249 455.5)" fill="none" stroke="#000" stroke-width="1"/>
      <line id="Line_4" data-name="Line 4" y1="3.041" x2="3.345" transform="translate(1010.249 458.541)" fill="none" stroke="#000" stroke-width="1"/>
    </g>
  </g>
</svg>
