<svg xmlns="http://www.w3.org/2000/svg" width="31.533" height="6.822" viewBox="0 0 31.533 6.822">
  <g id="Group_112" data-name="Group 112" transform="translate(-1005.271 -455.13)">
    <line id="Line_2" data-name="Line 2" x2="31.5" transform="translate(1005.271 458.541)" fill="none" stroke="#100e0e" stroke-width="1"/>
    <line id="Line_3" data-name="Line 3" x2="3.345" y2="3.041" transform="translate(1033.122 455.5)" fill="none" stroke="#100e0e" stroke-width="1"/>
    <line id="Line_4" data-name="Line 4" y1="3.041" x2="3.345" transform="translate(1033.122 458.541)" fill="none" stroke="#100e0e" stroke-width="1"/>
  </g>
</svg>
