<svg xmlns="http://www.w3.org/2000/svg" width="69.5" height="10.74" viewBox="0 0 69.5 10.74">
  <g id="Group_1467" data-name="Group 1467" transform="translate(-1020 -455.13)" opacity="0.698">
    <line id="Line_2" data-name="Line 2" x2="69.5" transform="translate(1020 460.5)" fill="none" stroke="#1f1e24" stroke-width="1"/>
    <line id="Line_3" data-name="Line 3" x2="5.5" y2="5" transform="translate(1083.5 455.5)" fill="none" stroke="#1f1e24" stroke-width="1"/>
    <line id="Line_4" data-name="Line 4" y1="5" x2="5.5" transform="translate(1083.5 460.5)" fill="none" stroke="#1f1e24" stroke-width="1"/>
  </g>
</svg>
